module gitlab.com/mtrchm/backend-utils

go 1.13

require (
	github.com/go-playground/universal-translator v0.17.0 // indirect
	github.com/jinzhu/gorm v1.9.11
	github.com/kr/pretty v0.2.0 // indirect
	github.com/labstack/echo/v4 v4.1.14
	github.com/leodido/go-urn v1.2.0 // indirect
	gopkg.in/go-playground/assert.v1 v1.2.1 // indirect
	gopkg.in/go-playground/validator.v9 v9.31.0
)
